{
  "game": [
    {
      "type": "image",
      "key": "NormalGameBackgroundBottom",
      "url": "assets/generic/game/image/background/BaseGameBackgroundBottom.jpg",
      "overwrite": false
    },
    {
      "type": "image",
      "key": "FreeGameBackgroundBottom",
      "url": "assets/generic/game/image/background/FreeGameBackgroundBottom.jpg",
      "overwrite": false
    },
    {
      "type": "image",
      "key": "FreeGameBackgroundCover",
      "url": "assets/generic/game/image/background/FreeGameBackgroundCover.jpg",
      "overwrite": false
    },
    {
      "type": "image",
      "key": "FreeGameBackground",
      "url": "assets/generic/game/image/background/FreeGameBackground.png",
      "overwrite": false
    },
    {
      "type": "image",
      "key": "BigWin",
      "url": "assets/generic/game/image/bigWinTitle/BigWin.png",
      "overwrite": false
    },
    {
      "type": "image",
      "key": "HugeWin",
      "url": "assets/generic/game/image/bigWinTitle/HugeWin.png",
      "overwrite": false
    },
    {
      "type": "image",
      "key": "MegaWin",
      "url": "assets/generic/game/image/bigWinTitle/MegaWin.png",
      "overwrite": false
    },
    {
      "type": "spritesheet",
      "key": "Symbol_S1",
      "url": "assets/generic/game/spritesheet/Symbol_S1.png",
      "frameWidth": 196,
      "frameHeight": 168,
      "frameMax": 36,
      "margin": 0,
      "spacing": 0
    },
    {
      "type": "spritesheet",
      "key": "Symbol_W1",
      "url": "assets/generic/game/spritesheet/Symbol_W1.png",
      "frameWidth": 196,
      "frameHeight": 168,
      "frameMax": 40,
      "margin": 0,
      "spacing": 0
    },
    {
      "type": "atlas",
      "key": "Symbol",
      "textureURL": "assets/generic/game/atlas/Symbol.png",
      "atlasURL": "assets/generic/game/atlas/Symbol.json",
      "format": "TEXTURE_ATLAS_JSON_HASH"
    },
    {
      "type": "image",
      "key": "Color (1)",
      "url": "assets/generic/game/image/line/color/Color (1).png",
      "overwrite": false
    },
    {
      "type": "image",
      "key": "Color (10)",
      "url": "assets/generic/game/image/line/color/Color (10).png",
      "overwrite": false
    },
    {
      "type": "image",
      "key": "Color (11)",
      "url": "assets/generic/game/image/line/color/Color (11).png",
      "overwrite": false
    },
    {
      "type": "image",
      "key": "Color (12)",
      "url": "assets/generic/game/image/line/color/Color (12).png",
      "overwrite": false
    },
    {
      "type": "image",
      "key": "Color (13)",
      "url": "assets/generic/game/image/line/color/Color (13).png",
      "overwrite": false
    },
    {
      "type": "image",
      "key": "Color (14)",
      "url": "assets/generic/game/image/line/color/Color (14).png",
      "overwrite": false
    },
    {
      "type": "image",
      "key": "Color (15)",
      "url": "assets/generic/game/image/line/color/Color (15).png",
      "overwrite": false
    },
    {
      "type": "image",
      "key": "Color (16)",
      "url": "assets/generic/game/image/line/color/Color (16).png",
      "overwrite": false
    },
    {
      "type": "image",
      "key": "Color (17)",
      "url": "assets/generic/game/image/line/color/Color (17).png",
      "overwrite": false
    },
    {
      "type": "image",
      "key": "Color (18)",
      "url": "assets/generic/game/image/line/color/Color (18).png",
      "overwrite": false
    },
    {
      "type": "image",
      "key": "Color (19)",
      "url": "assets/generic/game/image/line/color/Color (19).png",
      "overwrite": false
    },
    {
      "type": "image",
      "key": "Color (20)",
      "url": "assets/generic/game/image/line/color/Color (20).png",
      "overwrite": false
    },
    {
      "type": "image",
      "key": "Color (21)",
      "url": "assets/generic/game/image/line/color/Color (21).png",
      "overwrite": false
    },
    {
      "type": "image",
      "key": "Color (22)",
      "url": "assets/generic/game/image/line/color/Color (22).png",
      "overwrite": false
    },
    {
      "type": "image",
      "key": "Color (23)",
      "url": "assets/generic/game/image/line/color/Color (23).png",
      "overwrite": false
    },
    {
      "type": "image",
      "key": "Color (24)",
      "url": "assets/generic/game/image/line/color/Color (24).png",
      "overwrite": false
    },
    {
      "type": "image",
      "key": "Color (25)",
      "url": "assets/generic/game/image/line/color/Color (25).png",
      "overwrite": false
    },
    {
      "type": "image",
      "key": "Color (4)",
      "url": "assets/generic/game/image/line/color/Color (4).png",
      "overwrite": false
    },
    {
      "type": "image",
      "key": "Color (5)",
      "url": "assets/generic/game/image/line/color/Color (5).png",
      "overwrite": false
    },
    {
      "type": "image",
      "key": "Color (6)",
      "url": "assets/generic/game/image/line/color/Color (6).png",
      "overwrite": false
    },
    {
      "type": "image",
      "key": "Color (7)",
      "url": "assets/generic/game/image/line/color/Color (7).png",
      "overwrite": false
    },
    {
      "type": "image",
      "key": "Color (8)",
      "url": "assets/generic/game/image/line/color/Color (8).png",
      "overwrite": false
    },
    {
      "type": "image",
      "key": "Color (9)",
      "url": "assets/generic/game/image/line/color/Color (9).png",
      "overwrite": false
    },
    {
      "type": "image",
      "key": "Normal (1)",
      "url": "assets/generic/game/image/line/normal/Normal (1).png",
      "overwrite": false
    },
    {
      "type": "image",
      "key": "Normal (10)",
      "url": "assets/generic/game/image/line/normal/Normal (10).png",
      "overwrite": false
    },
    {
      "type": "image",
      "key": "Normal (11)",
      "url": "assets/generic/game/image/line/normal/Normal (11).png",
      "overwrite": false
    },
    {
      "type": "image",
      "key": "Normal (12)",
      "url": "assets/generic/game/image/line/normal/Normal (12).png",
      "overwrite": false
    },
    {
      "type": "image",
      "key": "Normal (13)",
      "url": "assets/generic/game/image/line/normal/Normal (13).png",
      "overwrite": false
    },
    {
      "type": "image",
      "key": "Normal (14)",
      "url": "assets/generic/game/image/line/normal/Normal (14).png",
      "overwrite": false
    },
    {
      "type": "image",
      "key": "Normal (15)",
      "url": "assets/generic/game/image/line/normal/Normal (15).png",
      "overwrite": false
    },
    {
      "type": "image",
      "key": "Normal (16)",
      "url": "assets/generic/game/image/line/normal/Normal (16).png",
      "overwrite": false
    },
    {
      "type": "image",
      "key": "Normal (17)",
      "url": "assets/generic/game/image/line/normal/Normal (17).png",
      "overwrite": false
    },
    {
      "type": "image",
      "key": "Normal (18)",
      "url": "assets/generic/game/image/line/normal/Normal (18).png",
      "overwrite": false
    },
    {
      "type": "image",
      "key": "Normal (19)",
      "url": "assets/generic/game/image/line/normal/Normal (19).png",
      "overwrite": false
    },
    {
      "type": "image",
      "key": "Normal (20)",
      "url": "assets/generic/game/image/line/normal/Normal (20).png",
      "overwrite": false
    },
    {
      "type": "image",
      "key": "Normal (21)",
      "url": "assets/generic/game/image/line/normal/Normal (21).png",
      "overwrite": false
    },
    {
      "type": "image",
      "key": "Normal (22)",
      "url": "assets/generic/game/image/line/normal/Normal (22).png",
      "overwrite": false
    },
    {
      "type": "image",
      "key": "Normal (23)",
      "url": "assets/generic/game/image/line/normal/Normal (23).png",
      "overwrite": false
    },
    {
      "type": "image",
      "key": "Normal (24)",
      "url": "assets/generic/game/image/line/normal/Normal (24).png",
      "overwrite": false
    },
    {
      "type": "image",
      "key": "Normal (25)",
      "url": "assets/generic/game/image/line/normal/Normal (25).png",
      "overwrite": false
    },
    {
      "type": "image",
      "key": "Normal (4)",
      "url": "assets/generic/game/image/line/normal/Normal (4).png",
      "overwrite": false
    },
    {
      "type": "image",
      "key": "Normal (5)",
      "url": "assets/generic/game/image/line/normal/Normal (5).png",
      "overwrite": false
    },
    {
      "type": "image",
      "key": "Normal (6)",
      "url": "assets/generic/game/image/line/normal/Normal (6).png",
      "overwrite": false
    },
    {
      "type": "image",
      "key": "Normal (7)",
      "url": "assets/generic/game/image/line/normal/Normal (7).png",
      "overwrite": false
    },
    {
      "type": "image",
      "key": "Normal (8)",
      "url": "assets/generic/game/image/line/normal/Normal (8).png",
      "overwrite": false
    },
    {
      "type": "image",
      "key": "Normal (9)",
      "url": "assets/generic/game/image/line/normal/Normal (9).png",
      "overwrite": false
    },
    {
      "type": "image",
      "key": "FreeChangeFrame_01",
      "url": "assets/generic/game/image/protagonist/freeChangeFrame/FreeChangeFrame_01.png",
      "overwrite": false
    },
    {
      "type": "image",
      "key": "FreeChangeFrame_02",
      "url": "assets/generic/game/image/protagonist/freeChangeFrame/FreeChangeFrame_02.png",
      "overwrite": false
    },
    {
      "type": "image",
      "key": "FreeChangeFrame_03",
      "url": "assets/generic/game/image/protagonist/freeChangeFrame/FreeChangeFrame_03.png",
      "overwrite": false
    },
    {
      "type": "image",
      "key": "FreeChangeFrame_04",
      "url": "assets/generic/game/image/protagonist/freeChangeFrame/FreeChangeFrame_04.png",
      "overwrite": false
    },
    {
      "type": "image",
      "key": "FreeChangeFrame_05",
      "url": "assets/generic/game/image/protagonist/freeChangeFrame/FreeChangeFrame_05.png",
      "overwrite": false
    },
    {
      "type": "image",
      "key": "FreeChangeFrame_06",
      "url": "assets/generic/game/image/protagonist/freeChangeFrame/FreeChangeFrame_06.png",
      "overwrite": false
    },
    {
      "type": "image",
      "key": "FreeChangeFrame_07",
      "url": "assets/generic/game/image/protagonist/freeChangeFrame/FreeChangeFrame_07.png",
      "overwrite": false
    },
    {
      "type": "image",
      "key": "FreeChangeFrame_08",
      "url": "assets/generic/game/image/protagonist/freeChangeFrame/FreeChangeFrame_08.png",
      "overwrite": false
    },
    {
      "type": "image",
      "key": "FreeChangeFrame_09",
      "url": "assets/generic/game/image/protagonist/freeChangeFrame/FreeChangeFrame_09.png",
      "overwrite": false
    },
    {
      "type": "image",
      "key": "FreeChangeFrame_10",
      "url": "assets/generic/game/image/protagonist/freeChangeFrame/FreeChangeFrame_10.png",
      "overwrite": false
    },
    {
      "type": "image",
      "key": "FreeChangeFrame_11",
      "url": "assets/generic/game/image/protagonist/freeChangeFrame/FreeChangeFrame_11.png",
      "overwrite": false
    },
    {
      "type": "image",
      "key": "FreeChangeFrame_12",
      "url": "assets/generic/game/image/protagonist/freeChangeFrame/FreeChangeFrame_12.png",
      "overwrite": false
    },
    {
      "type": "image",
      "key": "FreeChangeFrame_13",
      "url": "assets/generic/game/image/protagonist/freeChangeFrame/FreeChangeFrame_13.png",
      "overwrite": false
    },
    {
      "type": "image",
      "key": "FreeChangeFrame_14",
      "url": "assets/generic/game/image/protagonist/freeChangeFrame/FreeChangeFrame_14.png",
      "overwrite": false
    },
    {
      "type": "image",
      "key": "FreeChangeFrame_15",
      "url": "assets/generic/game/image/protagonist/freeChangeFrame/FreeChangeFrame_15.png",
      "overwrite": false
    },
    {
      "type": "image",
      "key": "FreeChangeFrame_16",
      "url": "assets/generic/game/image/protagonist/freeChangeFrame/FreeChangeFrame_16.png",
      "overwrite": false
    },
    {
      "type": "image",
      "key": "FreeChangeFrame_17",
      "url": "assets/generic/game/image/protagonist/freeChangeFrame/FreeChangeFrame_17.png",
      "overwrite": false
    },
    {
      "type": "image",
      "key": "FreeChangeFrame_18",
      "url": "assets/generic/game/image/protagonist/freeChangeFrame/FreeChangeFrame_18.png",
      "overwrite": false
    },
    {
      "type": "image",
      "key": "FreeChangeFrame_19",
      "url": "assets/generic/game/image/protagonist/freeChangeFrame/FreeChangeFrame_19.png",
      "overwrite": false
    },
    {
      "type": "image",
      "key": "FreeChangeFrame_20",
      "url": "assets/generic/game/image/protagonist/freeChangeFrame/FreeChangeFrame_20.png",
      "overwrite": false
    },
    {
      "type": "image",
      "key": "FreeChangeFrame_21",
      "url": "assets/generic/game/image/protagonist/freeChangeFrame/FreeChangeFrame_21.png",
      "overwrite": false
    },
    {
      "type": "image",
      "key": "FreeChangeFrame_22",
      "url": "assets/generic/game/image/protagonist/freeChangeFrame/FreeChangeFrame_22.png",
      "overwrite": false
    },
    {
      "type": "image",
      "key": "FreeChangeFrame_23",
      "url": "assets/generic/game/image/protagonist/freeChangeFrame/FreeChangeFrame_23.png",
      "overwrite": false
    },
    {
      "type": "image",
      "key": "FreeChangeFrame_24",
      "url": "assets/generic/game/image/protagonist/freeChangeFrame/FreeChangeFrame_24.png",
      "overwrite": false
    },
    {
      "type": "image",
      "key": "FreeChangeFrame_25",
      "url": "assets/generic/game/image/protagonist/freeChangeFrame/FreeChangeFrame_25.png",
      "overwrite": false
    },
    {
      "type": "image",
      "key": "FreeChangeFrame_26",
      "url": "assets/generic/game/image/protagonist/freeChangeFrame/FreeChangeFrame_26.png",
      "overwrite": false
    },
    {
      "type": "image",
      "key": "FreeChangeFrame_27",
      "url": "assets/generic/game/image/protagonist/freeChangeFrame/FreeChangeFrame_27.png",
      "overwrite": false
    },
    {
      "type": "image",
      "key": "FreeChangeFrame_28",
      "url": "assets/generic/game/image/protagonist/freeChangeFrame/FreeChangeFrame_28.png",
      "overwrite": false
    },
    {
      "type": "image",
      "key": "FreeIdle_1_01",
      "url": "assets/generic/game/image/protagonist/freeIdle_1/FreeIdle_1_01.png",
      "overwrite": false
    },
    {
      "type": "image",
      "key": "FreeIdle_1_02",
      "url": "assets/generic/game/image/protagonist/freeIdle_1/FreeIdle_1_02.png",
      "overwrite": false
    },
    {
      "type": "image",
      "key": "FreeIdle_1_03",
      "url": "assets/generic/game/image/protagonist/freeIdle_1/FreeIdle_1_03.png",
      "overwrite": false
    },
    {
      "type": "image",
      "key": "FreeIdle_1_04",
      "url": "assets/generic/game/image/protagonist/freeIdle_1/FreeIdle_1_04.png",
      "overwrite": false
    },
    {
      "type": "image",
      "key": "FreeIdle_1_05",
      "url": "assets/generic/game/image/protagonist/freeIdle_1/FreeIdle_1_05.png",
      "overwrite": false
    },
    {
      "type": "image",
      "key": "FreeIdle_1_06",
      "url": "assets/generic/game/image/protagonist/freeIdle_1/FreeIdle_1_06.png",
      "overwrite": false
    },
    {
      "type": "image",
      "key": "FreeIdle_1_07",
      "url": "assets/generic/game/image/protagonist/freeIdle_1/FreeIdle_1_07.png",
      "overwrite": false
    },
    {
      "type": "image",
      "key": "FreeIdle_1_08",
      "url": "assets/generic/game/image/protagonist/freeIdle_1/FreeIdle_1_08.png",
      "overwrite": false
    },
    {
      "type": "image",
      "key": "FreeIdle_1_09",
      "url": "assets/generic/game/image/protagonist/freeIdle_1/FreeIdle_1_09.png",
      "overwrite": false
    },
    {
      "type": "image",
      "key": "FreeIdle_1_10",
      "url": "assets/generic/game/image/protagonist/freeIdle_1/FreeIdle_1_10.png",
      "overwrite": false
    },
    {
      "type": "image",
      "key": "FreeIdle_1_11",
      "url": "assets/generic/game/image/protagonist/freeIdle_1/FreeIdle_1_11.png",
      "overwrite": false
    },
    {
      "type": "image",
      "key": "FreeIdle_1_12",
      "url": "assets/generic/game/image/protagonist/freeIdle_1/FreeIdle_1_12.png",
      "overwrite": false
    },
    {
      "type": "image",
      "key": "FreeIdle_1_13",
      "url": "assets/generic/game/image/protagonist/freeIdle_1/FreeIdle_1_13.png",
      "overwrite": false
    },
    {
      "type": "image",
      "key": "FreeIdle_1_14",
      "url": "assets/generic/game/image/protagonist/freeIdle_1/FreeIdle_1_14.png",
      "overwrite": false
    },
    {
      "type": "image",
      "key": "FreeIdle_1_15",
      "url": "assets/generic/game/image/protagonist/freeIdle_1/FreeIdle_1_15.png",
      "overwrite": false
    },
    {
      "type": "image",
      "key": "FreeIdle_1_16",
      "url": "assets/generic/game/image/protagonist/freeIdle_1/FreeIdle_1_16.png",
      "overwrite": false
    },
    {
      "type": "image",
      "key": "FreeIdle_1_17",
      "url": "assets/generic/game/image/protagonist/freeIdle_1/FreeIdle_1_17.png",
      "overwrite": false
    },
    {
      "type": "image",
      "key": "FreeIdle_1_18",
      "url": "assets/generic/game/image/protagonist/freeIdle_1/FreeIdle_1_18.png",
      "overwrite": false
    },
    {
      "type": "image",
      "key": "FreeIdle_1_19",
      "url": "assets/generic/game/image/protagonist/freeIdle_1/FreeIdle_1_19.png",
      "overwrite": false
    },
    {
      "type": "image",
      "key": "FreeIdle_1_20",
      "url": "assets/generic/game/image/protagonist/freeIdle_1/FreeIdle_1_20.png",
      "overwrite": false
    },
    {
      "type": "image",
      "key": "FreeIdle_1_21",
      "url": "assets/generic/game/image/protagonist/freeIdle_1/FreeIdle_1_21.png",
      "overwrite": false
    },
    {
      "type": "image",
      "key": "FreeIdle_1_22",
      "url": "assets/generic/game/image/protagonist/freeIdle_1/FreeIdle_1_22.png",
      "overwrite": false
    },
    {
      "type": "image",
      "key": "FreeIdle_1_23",
      "url": "assets/generic/game/image/protagonist/freeIdle_1/FreeIdle_1_23.png",
      "overwrite": false
    },
    {
      "type": "image",
      "key": "FreeIdle_1_24",
      "url": "assets/generic/game/image/protagonist/freeIdle_1/FreeIdle_1_24.png",
      "overwrite": false
    },
    {
      "type": "image",
      "key": "FreeIdle_1_25",
      "url": "assets/generic/game/image/protagonist/freeIdle_1/FreeIdle_1_25.png",
      "overwrite": false
    },
    {
      "type": "image",
      "key": "FreeIdle_1_26",
      "url": "assets/generic/game/image/protagonist/freeIdle_1/FreeIdle_1_26.png",
      "overwrite": false
    },
    {
      "type": "image",
      "key": "FreeIdle_1_27",
      "url": "assets/generic/game/image/protagonist/freeIdle_1/FreeIdle_1_27.png",
      "overwrite": false
    },
    {
      "type": "image",
      "key": "FreeIdle_1_28",
      "url": "assets/generic/game/image/protagonist/freeIdle_1/FreeIdle_1_28.png",
      "overwrite": false
    },
    {
      "type": "image",
      "key": "FreeIdle_1_29",
      "url": "assets/generic/game/image/protagonist/freeIdle_1/FreeIdle_1_29.png",
      "overwrite": false
    },
    {
      "type": "image",
      "key": "FreeIdle_1_30",
      "url": "assets/generic/game/image/protagonist/freeIdle_1/FreeIdle_1_30.png",
      "overwrite": false
    },
    {
      "type": "image",
      "key": "FreeIdle_1_31",
      "url": "assets/generic/game/image/protagonist/freeIdle_1/FreeIdle_1_31.png",
      "overwrite": false
    },
    {
      "type": "image",
      "key": "FreeIdle_1_32",
      "url": "assets/generic/game/image/protagonist/freeIdle_1/FreeIdle_1_32.png",
      "overwrite": false
    },
    {
      "type": "image",
      "key": "FreeIdle_2_01",
      "url": "assets/generic/game/image/protagonist/freeIdle_2/FreeIdle_2_01.png",
      "overwrite": false
    },
    {
      "type": "image",
      "key": "FreeIdle_2_02",
      "url": "assets/generic/game/image/protagonist/freeIdle_2/FreeIdle_2_02.png",
      "overwrite": false
    },
    {
      "type": "image",
      "key": "FreeIdle_2_03",
      "url": "assets/generic/game/image/protagonist/freeIdle_2/FreeIdle_2_03.png",
      "overwrite": false
    },
    {
      "type": "image",
      "key": "FreeIdle_2_04",
      "url": "assets/generic/game/image/protagonist/freeIdle_2/FreeIdle_2_04.png",
      "overwrite": false
    },
    {
      "type": "image",
      "key": "FreeIdle_2_05",
      "url": "assets/generic/game/image/protagonist/freeIdle_2/FreeIdle_2_05.png",
      "overwrite": false
    },
    {
      "type": "image",
      "key": "FreeIdle_2_06",
      "url": "assets/generic/game/image/protagonist/freeIdle_2/FreeIdle_2_06.png",
      "overwrite": false
    },
    {
      "type": "image",
      "key": "FreeIdle_2_07",
      "url": "assets/generic/game/image/protagonist/freeIdle_2/FreeIdle_2_07.png",
      "overwrite": false
    },
    {
      "type": "image",
      "key": "FreeIdle_2_08",
      "url": "assets/generic/game/image/protagonist/freeIdle_2/FreeIdle_2_08.png",
      "overwrite": false
    },
    {
      "type": "image",
      "key": "FreeIdle_2_09",
      "url": "assets/generic/game/image/protagonist/freeIdle_2/FreeIdle_2_09.png",
      "overwrite": false
    },
    {
      "type": "image",
      "key": "FreeIdle_2_10",
      "url": "assets/generic/game/image/protagonist/freeIdle_2/FreeIdle_2_10.png",
      "overwrite": false
    },
    {
      "type": "image",
      "key": "FreeIdle_2_11",
      "url": "assets/generic/game/image/protagonist/freeIdle_2/FreeIdle_2_11.png",
      "overwrite": false
    },
    {
      "type": "image",
      "key": "FreeIdle_2_12",
      "url": "assets/generic/game/image/protagonist/freeIdle_2/FreeIdle_2_12.png",
      "overwrite": false
    },
    {
      "type": "image",
      "key": "FreeIdle_2_13",
      "url": "assets/generic/game/image/protagonist/freeIdle_2/FreeIdle_2_13.png",
      "overwrite": false
    },
    {
      "type": "image",
      "key": "FreeIdle_2_14",
      "url": "assets/generic/game/image/protagonist/freeIdle_2/FreeIdle_2_14.png",
      "overwrite": false
    },
    {
      "type": "image",
      "key": "FreeIdle_2_15",
      "url": "assets/generic/game/image/protagonist/freeIdle_2/FreeIdle_2_15.png",
      "overwrite": false
    },
    {
      "type": "image",
      "key": "FreeIdle_2_16",
      "url": "assets/generic/game/image/protagonist/freeIdle_2/FreeIdle_2_16.png",
      "overwrite": false
    },
    {
      "type": "image",
      "key": "FreeIdle_3_01",
      "url": "assets/generic/game/image/protagonist/freeIdle_3/FreeIdle_3_01.png",
      "overwrite": false
    },
    {
      "type": "image",
      "key": "FreeIdle_3_02",
      "url": "assets/generic/game/image/protagonist/freeIdle_3/FreeIdle_3_02.png",
      "overwrite": false
    },
    {
      "type": "image",
      "key": "FreeIdle_3_03",
      "url": "assets/generic/game/image/protagonist/freeIdle_3/FreeIdle_3_03.png",
      "overwrite": false
    },
    {
      "type": "image",
      "key": "FreeIdle_3_04",
      "url": "assets/generic/game/image/protagonist/freeIdle_3/FreeIdle_3_04.png",
      "overwrite": false
    },
    {
      "type": "image",
      "key": "FreeIdle_3_05",
      "url": "assets/generic/game/image/protagonist/freeIdle_3/FreeIdle_3_05.png",
      "overwrite": false
    },
    {
      "type": "image",
      "key": "FreeIdle_3_06",
      "url": "assets/generic/game/image/protagonist/freeIdle_3/FreeIdle_3_06.png",
      "overwrite": false
    },
    {
      "type": "image",
      "key": "FreeIdle_3_07",
      "url": "assets/generic/game/image/protagonist/freeIdle_3/FreeIdle_3_07.png",
      "overwrite": false
    },
    {
      "type": "image",
      "key": "FreeIdle_3_08",
      "url": "assets/generic/game/image/protagonist/freeIdle_3/FreeIdle_3_08.png",
      "overwrite": false
    },
    {
      "type": "image",
      "key": "FreeIdle_3_09",
      "url": "assets/generic/game/image/protagonist/freeIdle_3/FreeIdle_3_09.png",
      "overwrite": false
    },
    {
      "type": "image",
      "key": "FreeIdle_3_10",
      "url": "assets/generic/game/image/protagonist/freeIdle_3/FreeIdle_3_10.png",
      "overwrite": false
    },
    {
      "type": "image",
      "key": "FreeIdle_3_11",
      "url": "assets/generic/game/image/protagonist/freeIdle_3/FreeIdle_3_11.png",
      "overwrite": false
    },
    {
      "type": "image",
      "key": "FreeIdle_3_12",
      "url": "assets/generic/game/image/protagonist/freeIdle_3/FreeIdle_3_12.png",
      "overwrite": false
    },
    {
      "type": "image",
      "key": "FreeIdle_3_13",
      "url": "assets/generic/game/image/protagonist/freeIdle_3/FreeIdle_3_13.png",
      "overwrite": false
    },
    {
      "type": "image",
      "key": "FreeIdle_3_14",
      "url": "assets/generic/game/image/protagonist/freeIdle_3/FreeIdle_3_14.png",
      "overwrite": false
    },
    {
      "type": "image",
      "key": "FreeIdle_3_15",
      "url": "assets/generic/game/image/protagonist/freeIdle_3/FreeIdle_3_15.png",
      "overwrite": false
    },
    {
      "type": "image",
      "key": "FreeIdle_3_16",
      "url": "assets/generic/game/image/protagonist/freeIdle_3/FreeIdle_3_16.png",
      "overwrite": false
    },
    {
      "type": "image",
      "key": "FreeIdle_3_17",
      "url": "assets/generic/game/image/protagonist/freeIdle_3/FreeIdle_3_17.png",
      "overwrite": false
    },
    {
      "type": "image",
      "key": "FreeIdle_3_18",
      "url": "assets/generic/game/image/protagonist/freeIdle_3/FreeIdle_3_18.png",
      "overwrite": false
    },
    {
      "type": "image",
      "key": "FreeIdle_3_19",
      "url": "assets/generic/game/image/protagonist/freeIdle_3/FreeIdle_3_19.png",
      "overwrite": false
    },
    {
      "type": "image",
      "key": "FreeIdle_3_20",
      "url": "assets/generic/game/image/protagonist/freeIdle_3/FreeIdle_3_20.png",
      "overwrite": false
    },
    {
      "type": "image",
      "key": "FreeIdle_3_21",
      "url": "assets/generic/game/image/protagonist/freeIdle_3/FreeIdle_3_21.png",
      "overwrite": false
    },
    {
      "type": "image",
      "key": "FreeIdle_3_22",
      "url": "assets/generic/game/image/protagonist/freeIdle_3/FreeIdle_3_22.png",
      "overwrite": false
    },
    {
      "type": "image",
      "key": "FreeIdle_3_23",
      "url": "assets/generic/game/image/protagonist/freeIdle_3/FreeIdle_3_23.png",
      "overwrite": false
    },
    {
      "type": "image",
      "key": "FreeIdle_3_24",
      "url": "assets/generic/game/image/protagonist/freeIdle_3/FreeIdle_3_24.png",
      "overwrite": false
    },
    {
      "type": "image",
      "key": "FreeIdle_3_25",
      "url": "assets/generic/game/image/protagonist/freeIdle_3/FreeIdle_3_25.png",
      "overwrite": false
    },
    {
      "type": "image",
      "key": "FreeIdle_3_26",
      "url": "assets/generic/game/image/protagonist/freeIdle_3/FreeIdle_3_26.png",
      "overwrite": false
    },
    {
      "type": "image",
      "key": "FreeIdle_3_27",
      "url": "assets/generic/game/image/protagonist/freeIdle_3/FreeIdle_3_27.png",
      "overwrite": false
    },
    {
      "type": "image",
      "key": "FreeIdle_3_28",
      "url": "assets/generic/game/image/protagonist/freeIdle_3/FreeIdle_3_28.png",
      "overwrite": false
    },
    {
      "type": "image",
      "key": "FreeWin_01",
      "url": "assets/generic/game/image/protagonist/freeWin/FreeWin_01.png",
      "overwrite": false
    },
    {
      "type": "image",
      "key": "FreeWin_02",
      "url": "assets/generic/game/image/protagonist/freeWin/FreeWin_02.png",
      "overwrite": false
    },
    {
      "type": "image",
      "key": "FreeWin_03",
      "url": "assets/generic/game/image/protagonist/freeWin/FreeWin_03.png",
      "overwrite": false
    },
    {
      "type": "image",
      "key": "FreeWin_04",
      "url": "assets/generic/game/image/protagonist/freeWin/FreeWin_04.png",
      "overwrite": false
    },
    {
      "type": "image",
      "key": "FreeWin_05",
      "url": "assets/generic/game/image/protagonist/freeWin/FreeWin_05.png",
      "overwrite": false
    },
    {
      "type": "image",
      "key": "FreeWin_06",
      "url": "assets/generic/game/image/protagonist/freeWin/FreeWin_06.png",
      "overwrite": false
    },
    {
      "type": "image",
      "key": "FreeWin_07",
      "url": "assets/generic/game/image/protagonist/freeWin/FreeWin_07.png",
      "overwrite": false
    },
    {
      "type": "image",
      "key": "FreeWin_08",
      "url": "assets/generic/game/image/protagonist/freeWin/FreeWin_08.png",
      "overwrite": false
    },
    {
      "type": "image",
      "key": "FreeWin_09",
      "url": "assets/generic/game/image/protagonist/freeWin/FreeWin_09.png",
      "overwrite": false
    },
    {
      "type": "image",
      "key": "FreeWin_10",
      "url": "assets/generic/game/image/protagonist/freeWin/FreeWin_10.png",
      "overwrite": false
    },
    {
      "type": "image",
      "key": "FreeWin_11",
      "url": "assets/generic/game/image/protagonist/freeWin/FreeWin_11.png",
      "overwrite": false
    },
    {
      "type": "image",
      "key": "FreeWin_12",
      "url": "assets/generic/game/image/protagonist/freeWin/FreeWin_12.png",
      "overwrite": false
    },
    {
      "type": "image",
      "key": "FreeWin_13",
      "url": "assets/generic/game/image/protagonist/freeWin/FreeWin_13.png",
      "overwrite": false
    },
    {
      "type": "image",
      "key": "FreeWin_14",
      "url": "assets/generic/game/image/protagonist/freeWin/FreeWin_14.png",
      "overwrite": false
    },
    {
      "type": "image",
      "key": "FreeWin_15",
      "url": "assets/generic/game/image/protagonist/freeWin/FreeWin_15.png",
      "overwrite": false
    },
    {
      "type": "image",
      "key": "FreeWin_16",
      "url": "assets/generic/game/image/protagonist/freeWin/FreeWin_16.png",
      "overwrite": false
    },
    {
      "type": "image",
      "key": "FreeWin_17",
      "url": "assets/generic/game/image/protagonist/freeWin/FreeWin_17.png",
      "overwrite": false
    },
    {
      "type": "image",
      "key": "FreeWin_18",
      "url": "assets/generic/game/image/protagonist/freeWin/FreeWin_18.png",
      "overwrite": false
    },
    {
      "type": "image",
      "key": "FreeWin_19",
      "url": "assets/generic/game/image/protagonist/freeWin/FreeWin_19.png",
      "overwrite": false
    },
    {
      "type": "image",
      "key": "FreeWin_20",
      "url": "assets/generic/game/image/protagonist/freeWin/FreeWin_20.png",
      "overwrite": false
    },
    {
      "type": "image",
      "key": "FreeWin_21",
      "url": "assets/generic/game/image/protagonist/freeWin/FreeWin_21.png",
      "overwrite": false
    },
    {
      "type": "image",
      "key": "FreeWin_22",
      "url": "assets/generic/game/image/protagonist/freeWin/FreeWin_22.png",
      "overwrite": false
    },
    {
      "type": "image",
      "key": "FreeWin_23",
      "url": "assets/generic/game/image/protagonist/freeWin/FreeWin_23.png",
      "overwrite": false
    },
    {
      "type": "image",
      "key": "FreeWin_24",
      "url": "assets/generic/game/image/protagonist/freeWin/FreeWin_24.png",
      "overwrite": false
    },
    {
      "type": "image",
      "key": "FreeWin_25",
      "url": "assets/generic/game/image/protagonist/freeWin/FreeWin_25.png",
      "overwrite": false
    },
    {
      "type": "image",
      "key": "FreeWin_26",
      "url": "assets/generic/game/image/protagonist/freeWin/FreeWin_26.png",
      "overwrite": false
    },
    {
      "type": "image",
      "key": "FreeWin_27",
      "url": "assets/generic/game/image/protagonist/freeWin/FreeWin_27.png",
      "overwrite": false
    },
    {
      "type": "image",
      "key": "FreeWin_28",
      "url": "assets/generic/game/image/protagonist/freeWin/FreeWin_28.png",
      "overwrite": false
    },
    {
      "type": "image",
      "key": "FreeWin_29",
      "url": "assets/generic/game/image/protagonist/freeWin/FreeWin_29.png",
      "overwrite": false
    },
    {
      "type": "image",
      "key": "FreeWin_30",
      "url": "assets/generic/game/image/protagonist/freeWin/FreeWin_30.png",
      "overwrite": false
    },
    {
      "type": "image",
      "key": "FreeWin_31",
      "url": "assets/generic/game/image/protagonist/freeWin/FreeWin_31.png",
      "overwrite": false
    },
    {
      "type": "image",
      "key": "FreeWin_32",
      "url": "assets/generic/game/image/protagonist/freeWin/FreeWin_32.png",
      "overwrite": false
    },
    {
      "type": "image",
      "key": "FreeWin_33",
      "url": "assets/generic/game/image/protagonist/freeWin/FreeWin_33.png",
      "overwrite": false
    },
    {
      "type": "image",
      "key": "FreeWin_34",
      "url": "assets/generic/game/image/protagonist/freeWin/FreeWin_34.png",
      "overwrite": false
    },
    {
      "type": "image",
      "key": "FreeWin_35",
      "url": "assets/generic/game/image/protagonist/freeWin/FreeWin_35.png",
      "overwrite": false
    },
    {
      "type": "image",
      "key": "FreeWin_36",
      "url": "assets/generic/game/image/protagonist/freeWin/FreeWin_36.png",
      "overwrite": false
    },
    {
      "type": "image",
      "key": "FreeWin_37",
      "url": "assets/generic/game/image/protagonist/freeWin/FreeWin_37.png",
      "overwrite": false
    },
    {
      "type": "image",
      "key": "FreeWin_38",
      "url": "assets/generic/game/image/protagonist/freeWin/FreeWin_38.png",
      "overwrite": false
    },
    {
      "type": "image",
      "key": "FreeWin_39",
      "url": "assets/generic/game/image/protagonist/freeWin/FreeWin_39.png",
      "overwrite": false
    },
    {
      "type": "image",
      "key": "FreeWin_40",
      "url": "assets/generic/game/image/protagonist/freeWin/FreeWin_40.png",
      "overwrite": false
    },
    {
      "type": "image",
      "key": "FreeWin_41",
      "url": "assets/generic/game/image/protagonist/freeWin/FreeWin_41.png",
      "overwrite": false
    },
    {
      "type": "image",
      "key": "FreeWin_42",
      "url": "assets/generic/game/image/protagonist/freeWin/FreeWin_42.png",
      "overwrite": false
    },
    {
      "type": "image",
      "key": "FreeWin_43",
      "url": "assets/generic/game/image/protagonist/freeWin/FreeWin_43.png",
      "overwrite": false
    },
    {
      "type": "image",
      "key": "FreeWin_44",
      "url": "assets/generic/game/image/protagonist/freeWin/FreeWin_44.png",
      "overwrite": false
    },
    {
      "type": "image",
      "key": "FreeWin_45",
      "url": "assets/generic/game/image/protagonist/freeWin/FreeWin_45.png",
      "overwrite": false
    },
    {
      "type": "image",
      "key": "NormalIdle_01",
      "url": "assets/generic/game/image/protagonist/normalIdle/NormalIdle_01.png",
      "overwrite": false
    },
    {
      "type": "image",
      "key": "NormalIdle_02",
      "url": "assets/generic/game/image/protagonist/normalIdle/NormalIdle_02.png",
      "overwrite": false
    },
    {
      "type": "image",
      "key": "NormalIdle_03",
      "url": "assets/generic/game/image/protagonist/normalIdle/NormalIdle_03.png",
      "overwrite": false
    },
    {
      "type": "image",
      "key": "NormalIdle_04",
      "url": "assets/generic/game/image/protagonist/normalIdle/NormalIdle_04.png",
      "overwrite": false
    },
    {
      "type": "image",
      "key": "NormalIdle_05",
      "url": "assets/generic/game/image/protagonist/normalIdle/NormalIdle_05.png",
      "overwrite": false
    },
    {
      "type": "image",
      "key": "NormalIdle_06",
      "url": "assets/generic/game/image/protagonist/normalIdle/NormalIdle_06.png",
      "overwrite": false
    },
    {
      "type": "image",
      "key": "NormalIdle_07",
      "url": "assets/generic/game/image/protagonist/normalIdle/NormalIdle_07.png",
      "overwrite": false
    },
    {
      "type": "image",
      "key": "NormalIdle_08",
      "url": "assets/generic/game/image/protagonist/normalIdle/NormalIdle_08.png",
      "overwrite": false
    },
    {
      "type": "image",
      "key": "NormalIdle_09",
      "url": "assets/generic/game/image/protagonist/normalIdle/NormalIdle_09.png",
      "overwrite": false
    },
    {
      "type": "image",
      "key": "NormalIdle_10",
      "url": "assets/generic/game/image/protagonist/normalIdle/NormalIdle_10.png",
      "overwrite": false
    },
    {
      "type": "image",
      "key": "NormalIdle_11",
      "url": "assets/generic/game/image/protagonist/normalIdle/NormalIdle_11.png",
      "overwrite": false
    },
    {
      "type": "image",
      "key": "NormalIdle_12",
      "url": "assets/generic/game/image/protagonist/normalIdle/NormalIdle_12.png",
      "overwrite": false
    },
    {
      "type": "image",
      "key": "NormalIdle_13",
      "url": "assets/generic/game/image/protagonist/normalIdle/NormalIdle_13.png",
      "overwrite": false
    },
    {
      "type": "image",
      "key": "NormalIdle_14",
      "url": "assets/generic/game/image/protagonist/normalIdle/NormalIdle_14.png",
      "overwrite": false
    },
    {
      "type": "image",
      "key": "NormalIdle_15",
      "url": "assets/generic/game/image/protagonist/normalIdle/NormalIdle_15.png",
      "overwrite": false
    },
    {
      "type": "image",
      "key": "NormalIdle_16",
      "url": "assets/generic/game/image/protagonist/normalIdle/NormalIdle_16.png",
      "overwrite": false
    },
    {
      "type": "image",
      "key": "NormalIdle_17",
      "url": "assets/generic/game/image/protagonist/normalIdle/NormalIdle_17.png",
      "overwrite": false
    },
    {
      "type": "image",
      "key": "NormalIdle_18",
      "url": "assets/generic/game/image/protagonist/normalIdle/NormalIdle_18.png",
      "overwrite": false
    },
    {
      "type": "image",
      "key": "NormalWin_01",
      "url": "assets/generic/game/image/protagonist/normalWin/NormalWin_01.png",
      "overwrite": false
    },
    {
      "type": "image",
      "key": "NormalWin_02",
      "url": "assets/generic/game/image/protagonist/normalWin/NormalWin_02.png",
      "overwrite": false
    },
    {
      "type": "image",
      "key": "NormalWin_03",
      "url": "assets/generic/game/image/protagonist/normalWin/NormalWin_03.png",
      "overwrite": false
    },
    {
      "type": "image",
      "key": "NormalWin_04",
      "url": "assets/generic/game/image/protagonist/normalWin/NormalWin_04.png",
      "overwrite": false
    },
    {
      "type": "image",
      "key": "NormalWin_05",
      "url": "assets/generic/game/image/protagonist/normalWin/NormalWin_05.png",
      "overwrite": false
    },
    {
      "type": "image",
      "key": "NormalWin_06",
      "url": "assets/generic/game/image/protagonist/normalWin/NormalWin_06.png",
      "overwrite": false
    },
    {
      "type": "image",
      "key": "NormalWin_07",
      "url": "assets/generic/game/image/protagonist/normalWin/NormalWin_07.png",
      "overwrite": false
    },
    {
      "type": "image",
      "key": "NormalWin_08",
      "url": "assets/generic/game/image/protagonist/normalWin/NormalWin_08.png",
      "overwrite": false
    },
    {
      "type": "image",
      "key": "NormalWin_09",
      "url": "assets/generic/game/image/protagonist/normalWin/NormalWin_09.png",
      "overwrite": false
    },
    {
      "type": "image",
      "key": "NormalWin_10",
      "url": "assets/generic/game/image/protagonist/normalWin/NormalWin_10.png",
      "overwrite": false
    },
    {
      "type": "image",
      "key": "NormalWin_11",
      "url": "assets/generic/game/image/protagonist/normalWin/NormalWin_11.png",
      "overwrite": false
    },
    {
      "type": "image",
      "key": "NormalWin_12",
      "url": "assets/generic/game/image/protagonist/normalWin/NormalWin_12.png",
      "overwrite": false
    },
    {
      "type": "image",
      "key": "NormalWin_13",
      "url": "assets/generic/game/image/protagonist/normalWin/NormalWin_13.png",
      "overwrite": false
    },
    {
      "type": "image",
      "key": "NormalWin_14",
      "url": "assets/generic/game/image/protagonist/normalWin/NormalWin_14.png",
      "overwrite": false
    },
    {
      "type": "image",
      "key": "NormalWin_15",
      "url": "assets/generic/game/image/protagonist/normalWin/NormalWin_15.png",
      "overwrite": false
    },
    {
      "type": "image",
      "key": "NormalWin_16",
      "url": "assets/generic/game/image/protagonist/normalWin/NormalWin_16.png",
      "overwrite": false
    },
    {
      "type": "image",
      "key": "NormalWin_17",
      "url": "assets/generic/game/image/protagonist/normalWin/NormalWin_17.png",
      "overwrite": false
    },
    {
      "type": "image",
      "key": "NormalWin_18",
      "url": "assets/generic/game/image/protagonist/normalWin/NormalWin_18.png",
      "overwrite": false
    },
    {
      "type": "image",
      "key": "NormalWin_19",
      "url": "assets/generic/game/image/protagonist/normalWin/NormalWin_19.png",
      "overwrite": false
    },
    {
      "type": "image",
      "key": "NormalWin_20",
      "url": "assets/generic/game/image/protagonist/normalWin/NormalWin_20.png",
      "overwrite": false
    },
    {
      "type": "image",
      "key": "NormalWin_21",
      "url": "assets/generic/game/image/protagonist/normalWin/NormalWin_21.png",
      "overwrite": false
    },
    {
      "type": "image",
      "key": "NormalWin_22",
      "url": "assets/generic/game/image/protagonist/normalWin/NormalWin_22.png",
      "overwrite": false
    },
    {
      "type": "image",
      "key": "NormalWin_23",
      "url": "assets/generic/game/image/protagonist/normalWin/NormalWin_23.png",
      "overwrite": false
    },
    {
      "type": "json",
      "key": "ReelSettings",
      "url": "assets/generic/json/ReelSettings.json",
      "overwrite": false
    }
  ],
  "ui": [{
    "type": "atlas",
    "key": "UI",
    "textureURL": "assets/generic/ui/UI.png",
    "atlasURL": "assets/generic/ui/UI.json",
    "format": "TEXTURE_ATLAS_JSON_HASH"
  }],
  "meta": {
    "generated": "1571647710155",
    "app": "Phaser Editor",
    "url": "http://phasereditor.boniatillo.com",
    "version": "1.0",
    "copyright": "Arian Fornaris (c) 2015,2016"
  }
}